<?xml version="1.0" encoding="UTF-8" standalone="no"?>
<!-- Created with Inkscape (http://www.inkscape.org/) -->

<svg
   xmlns:dc="http://purl.org/dc/elements/1.1/"
   xmlns:cc="http://creativecommons.org/ns#"
   xmlns:rdf="http://www.w3.org/1999/02/22-rdf-syntax-ns#"
   xmlns:svg="http://www.w3.org/2000/svg"
   xmlns="http://www.w3.org/2000/svg"
   xmlns:sodipodi="http://sodipodi.sourceforge.net/DTD/sodipodi-0.dtd"
   xmlns:inkscape="http://www.inkscape.org/namespaces/inkscape"
   width="112.88888mm"
   height="112.88887mm"
   viewBox="0 0 399.99996 399.99993"
   id="svg2"
   version="1.1"
   inkscape:version="0.91 r13725"
   sodipodi:docname="red_dragon.svg">
  <defs
     id="defs4" />
  <sodipodi:namedview
     id="base"
     pagecolor="#ffffff"
     bordercolor="#666666"
     borderopacity="1.0"
     inkscape:pageopacity="0.0"
     inkscape:pageshadow="2"
     inkscape:zoom="0.95803754"
     inkscape:cx="155.28089"
     inkscape:cy="115.49573"
     inkscape:document-units="px"
     inkscape:current-layer="layer1"
     showgrid="true"
     inkscape:window-width="1920"
     inkscape:window-height="1149"
     inkscape:window-x="0"
     inkscape:window-y="0"
     inkscape:window-maximized="1"
     showguides="false"
     objecttolerance="10000"
     fit-margin-top="0"
     fit-margin-left="0"
     fit-margin-right="0"
     fit-margin-bottom="0">
    <inkscape:grid
       type="xygrid"
       id="grid4182"
       dotted="false"
       originx="-149.99998"
       originy="-599.99999" />
  </sodipodi:namedview>
  <metadata
     id="metadata7">
    <rdf:RDF>
      <cc:Work
         rdf:about="">
        <dc:format>image/svg+xml</dc:format>
        <dc:type
           rdf:resource="http://purl.org/dc/dcmitype/StillImage" />
        <dc:title />
      </cc:Work>
    </rdf:RDF>
  </metadata>
  <g
     inkscape:label="Layer 1"
     inkscape:groupmode="layer"
     id="layer1"
     transform="translate(-149.99999,-52.362271)">
    <path
       style="fill:#ff0000;fill-opacity:1;fill-rule:evenodd;stroke:#000000;stroke-width:3.99999976;stroke-linecap:butt;stroke-linejoin:miter;stroke-miterlimit:4;stroke-dasharray:none;stroke-opacity:1"
       id="path3344"
       sodipodi:type="arc"
       sodipodi:cx="252.3622"
       sodipodi:cy="350.00003"
       sodipodi:rx="198"
       sodipodi:ry="198.00119"
       sodipodi:start="0"
       sodipodi:end="3.1415927"
       d="m 450.3622,350.00003 a 198,198.00119 0 0 1 -99,171.47406 198,198.00119 0 0 1 -198.00001,0 198,198.00119 0 0 1 -98.999992,-171.47407"
       transform="matrix(0,1,1,0,0,0)"
       sodipodi:open="true" />
    <path
       style="fill:#ffa500;fill-opacity:1;fill-rule:evenodd;stroke:#000000;stroke-width:3.99999976;stroke-linecap:butt;stroke-linejoin:miter;stroke-miterlimit:4;stroke-dasharray:none;stroke-opacity:1"
       id="path3344-3"
       sodipodi:type="arc"
       sodipodi:cx="252.3622"
       sodipodi:cy="-349.99994"
       sodipodi:rx="198"
       sodipodi:ry="198.00117"
       sodipodi:start="0"
       sodipodi:end="3.1415927"
       d="m 450.3622,-349.99994 a 198,198.00117 0 0 1 -99,171.47405 198,198.00117 0 0 1 -198.00001,0 198,198.00117 0 0 1 -98.999992,-171.47406"
       sodipodi:open="true"
       transform="matrix(0,1,-1,0,0,0)" />
    <rect
       style="fill:none;fill-opacity:1;stroke:#000000;stroke-width:6;stroke-miterlimit:4;stroke-dasharray:none;stroke-opacity:1"
       id="rect4137"
       width="133.5685"
       height="158.38847"
       x="185.82611"
       y="-525.24518"
       transform="matrix(0,1,-1,0,0,0)" />
  </g>
</svg>
